{
    "minutes": {
        "budget-2019-10-15": {
            "type": "budget",
            "name": "Budget Meeting Tue Oct 15 2019",
            "date": "2019-10-15",
            "desc": null,
            "url": "https://www.northernsac.ca/wp-content/uploads/SAC-Budget-Meeting-Minutes-2019-10-15.pdf"
        },
        "classrep-budget-2018-11-14": {
            "type": "classrep-budget",
            "name": "Class Rep Budget Meeting Wed Nov 14 2018",
            "date": "2018-11-14",
            "desc": null,
            "url": "https://www.northernsac.ca/wp-content/uploads/SAC-Budget-Class-Rep-Meeting-Minutes-2018-11-14.pdf"
        },
        "senate-2020-12-15": {
            "type": "senate",
            "name": "Senate Meeting Tue Dec 15 2020",
            "date": "2020-12-15",
            "desc": "Test description.",
            "url": "https://docs.google.com/document/d/1OqpiqU4hYWGXZ8Ix3amd9mt30WQnNDLM6-I5sG9FQrc/edit?fbclid=IwAR2xg4xYTIlW2laeGwjMN1CIB2DLM4DUDaRCNWwkT8u0gxDKisnAFaisu9I"
        },
        "classrep-2020-10-24": {
            "type": "classrep",
            "name": "Class Rep Meeting Thu Oct 24 2019",
            "date": "2019-10-24",
            "desc": null,
            "url": "https://www.northernsac.ca/wp-content/uploads/SAC-Class-Rep-Meeting-Minutes-2019-10-24.pdf"
        }
    }
}
